<?xml version="1.0" encoding="UTF-8"?>
<svg width="20px" height="20px" viewBox="0 0 20 20" version="1.1" xmlns="http://www.w3.org/2000/svg" xmlns:xlink="http://www.w3.org/1999/xlink">
    <!-- Generator: Sketch 58 (84663) - https://sketch.com -->
    <title>🎨 Icon color</title>
    <desc>Created with Sketch.</desc>
    <defs>
        <path d="M34.295,27.605 L29.727,33.605 C29.539,33.852 29.248,33.998 28.938,34 L28.931,34 C28.624,34 28.334,33.858 28.144,33.616 L25.712,30.509 C25.372,30.075 25.448,29.446 25.883,29.106 C26.317,28.765 26.947,28.841 27.287,29.277 L28.92,31.363 L32.704,26.394 C33.038,25.955 33.665,25.869 34.106,26.204 C34.545,26.539 34.63,27.166 34.295,27.605 M30,20 C24.477,20 20,24.477 20,30 C20,35.522 24.477,40 30,40 C35.523,40 40,35.522 40,30 C40,24.477 35.523,20 30,20" id="path-1"></path>
    </defs>
    <g id="Pages" stroke="none" stroke-width="1" fill="none" fill-rule="evenodd">
        <g id="Landing" transform="translate(-950.000000, -3744.000000)">
            <g id="HowItWork" transform="translate(0.000000, 2954.000000)">
                <g id="Steps" transform="translate(930.000000, 262.000000)">
                    <g id="step-3" transform="translate(0.000000, 508.000000)">
                        <mask id="mask-2" fill="white">
                            <use xlink:href="#path-1"></use>
                        </mask>
                        <use id="🎨-Icon-color" fill="#CDCDCD" xlink:href="#path-1"></use>
                    </g>
                </g>
            </g>
        </g>
    </g>
</svg>